array (
  'already_linked' => false,
  'suggestion' => 
  array (
    0 => 
    array (
      'name' => 'Массажер для тела Anatomico AT-119 UFO, ручной',
      'weight' => 20,
      'in_base' => 0,
      'price' => '500',
      'id' => '45132',
      'image_url' => '//10med.ru/upload/products/small/45132.jpg',
      'catalog_url' => '//10med.ru/?page=catalogitem&item_id=45132',
    ),
    1 => 
    array (
      'name' => 'Массажер для тела Gezatone AMG239 "Домашний Фитнесс"',
      'weight' => 11,
      'in_base' => 0,
      'price' => '417',
      'id' => '42646',
      'image_url' => '//10med.ru/upload/products/small/42646.jpg',
      'catalog_url' => '//10med.ru/?page=catalogitem&item_id=42646',
    ),
    2 => 
    array (
      'name' => 'Массажер для тела Beurer CM50',
      'weight' => 10,
      'in_base' => 0,
      'price' => '2000',
      'id' => '29842',
      'image_url' => '//10med.ru/upload/products/small/29842.jpg',
      'catalog_url' => '//10med.ru/?page=catalogitem&item_id=29842',
    ),
    3 => 
    array (
      'name' => 'Массажер для тела Katsubumi',
      'weight' => 10,
      'in_base' => 0,
      'price' => '940',
      'id' => '30955',
      'image_url' => '//10med.ru/upload/products/small/30955.jpg',
      'catalog_url' => '//10med.ru/?page=catalogitem&item_id=30955',
    ),
    4 => 
    array (
      'name' => 'Массажер для тела Casada Tappymed 2 (Таппимед 2)',
      'weight' => 10,
      'in_base' => 0,
      'price' => '4900',
      'id' => '28721',
      'image_url' => '//10med.ru/upload/products/small/28721.jpg',
      'catalog_url' => '//10med.ru/?page=catalogitem&item_id=28721',
    ),
    5 => 
    array (
      'name' => 'Массажер для тела Maxion UN-2000M',
      'weight' => 10,
      'in_base' => 0,
      'price' => '3400',
      'id' => '28735',
      'image_url' => '//10med.ru/upload/products/small/28735.jpg',
      'catalog_url' => '//10med.ru/?page=catalogitem&item_id=28735',
    ),
    6 => 
    array (
      'name' => 'Ручной массажер для тела OTO e-Thumper ET-200 ',
      'weight' => 10,
      'in_base' => 0,
      'price' => '2800',
      'id' => '28727',
      'image_url' => '//10med.ru/upload/products/small/28727.jpg',
      'catalog_url' => '//10med.ru/?page=catalogitem&item_id=28727',
    ),
    7 => 
    array (
      'name' => 'Массажер для тела MEDISANA IVM',
      'weight' => 10,
      'in_base' => 0,
      'price' => '1574',
      'id' => '30749',
      'image_url' => '//10med.ru/upload/products/small/30749.jpg',
      'catalog_url' => '//10med.ru/?page=catalogitem&item_id=30749',
    ),
    8 => 
    array (
      'name' => 'Массажер для тела "Анти"',
      'weight' => 10,
      'in_base' => 0,
      'price' => '1450',
      'id' => '42887',
      'image_url' => '//10med.ru/upload/products/small/42887.jpg',
      'catalog_url' => '//10med.ru/?page=catalogitem&item_id=42887',
    ),
    9 => 
    array (
      'name' => 'Массажер для тела Homedics PAQ-39H Promedic',
      'weight' => 10,
      'in_base' => 0,
      'price' => '2900',
      'id' => '30746',
      'image_url' => '//10med.ru/upload/products/small/30746.jpg',
      'catalog_url' => '//10med.ru/?page=catalogitem&item_id=30746',
    ),
    10 => 
    array (
      'name' => 'Массажер для тела Fitstudio с 2 массаж. головками',
      'weight' => 10,
      'in_base' => 0,
      'price' => '1500',
      'id' => '30744',
      'image_url' => '//10med.ru/upload/products/small/30744.jpg',
      'catalog_url' => '//10med.ru/?page=catalogitem&item_id=30744',
    ),
    11 => 
    array (
      'name' => 'Массажер для тела iRest SL-C27B мини',
      'weight' => 10,
      'in_base' => 0,
      'price' => '500',
      'id' => '30747',
      'image_url' => '//10med.ru/upload/products/small/30747.jpg',
      'catalog_url' => '//10med.ru/?page=catalogitem&item_id=30747',
    ),
    12 => 
    array (
      'name' => 'Массажер для тела c 4-мя массажными головками LC-2016',
      'weight' => 10,
      'in_base' => 0,
      'price' => '1100',
      'id' => '31633',
      'image_url' => '//10med.ru/upload/products/small/31633.jpg',
      'catalog_url' => '//10med.ru/?page=catalogitem&item_id=31633',
    ),
    13 => 
    array (
      'name' => 'Массажер Скульптор Тела Gezatone модель AMG114',
      'weight' => 10,
      'in_base' => 0,
      'price' => '1999',
      'id' => '29846',
      'image_url' => '//10med.ru/upload/products/small/29846.jpg',
      'catalog_url' => '//10med.ru/?page=catalogitem&item_id=29846',
    ),
    14 => 
    array (
      'name' => 'Массажер для тела Beurer MG148',
      'weight' => 10,
      'in_base' => 0,
      'price' => '3200',
      'id' => '42102',
      'image_url' => '//10med.ru/upload/products/small/42102.jpg',
      'catalog_url' => '//10med.ru/?page=catalogitem&item_id=42102',
    ),
    15 => 
    array (
      'name' => 'Массажер для тела Maxion UM35',
      'weight' => 10,
      'in_base' => 0,
      'price' => '2500',
      'id' => '28755',
      'image_url' => '//10med.ru/upload/products/small/28755.jpg',
      'catalog_url' => '//10med.ru/?page=catalogitem&item_id=28755',
    ),
    16 => 
    array (
      'name' => 'Массажер Beurer MG17 для тела',
      'weight' => 10,
      'in_base' => 0,
      'price' => '700',
      'id' => '42134',
      'image_url' => '//10med.ru/upload/products/small/42134.jpg',
      'catalog_url' => '//10med.ru/?page=catalogitem&item_id=42134',
    ),
    17 => 
    array (
      'name' => 'Массажер для тела Celluless MD, антицеллюлитный',
      'weight' => 10,
      'in_base' => 0,
      'price' => '1490',
      'id' => '32569',
      'image_url' => '//10med.ru/upload/products/small/32569.jpg',
      'catalog_url' => '//10med.ru/?page=catalogitem&item_id=32569',
    ),
    18 => 
    array (
      'name' => 'Вакуумный массажер для лица и тела AllRest «Вакула» СН-356',
      'weight' => 10,
      'in_base' => 0,
      'price' => '2700',
      'id' => '42286',
      'image_url' => '//10med.ru/upload/products/small/42286.jpg',
      'catalog_url' => '//10med.ru/?page=catalogitem&item_id=42286',
    ),
    19 => 
    array (
      'name' => 'Массажер для тела Beurer MG310',
      'weight' => 10,
      'in_base' => 0,
      'price' => '14000',
      'id' => '42104',
      'image_url' => '//10med.ru/upload/products/small/42104.jpg',
      'catalog_url' => '//10med.ru/?page=catalogitem&item_id=42104',
    ),
  ),
)